{
    "nom" : "Jean Dupont",
    "SIREN" : "XXX XXX XXX",
    "adresse" : ["ligne 1", "ligne2", "ligne3"],
    "téléphone" : "XX XX XX XX XX",
    "adresse électronique" : "jean.dupont@exemple.fr",
    "adresse facturation" : ["ligne1", "ligne2, ligne3"],
    "lecteur PDF" : "evince"
}
